{
  "Resources": {
    "moodyvpcBE0FEEF5": {
      "Type": "AWS::EC2::VPC",
      "Properties": {
        "CidrBlock": "10.0.0.0/16",
        "EnableDnsHostnames": true,
        "EnableDnsSupport": true,
        "InstanceTenancy": "default",
        "Tags": [
          {
            "Key": "Name",
            "Value": "MoodyTestStack/moody-vpc"
          }
        ]
      },
      "Metadata": {
        "aws:cdk:path": "MoodyTestStack/moody-vpc/Resource"
      }
    },
    "moodyvpcPublicSubnet1SubnetFF3FCB1A": {
      "Type": "AWS::EC2::Subnet",
      "Properties": {
        "CidrBlock": "10.0.0.0/18",
        "VpcId": {
          "Ref": "moodyvpcBE0FEEF5"
        },
        "AvailabilityZone": {
          "Fn::Select": [
            0,
            {
              "Fn::GetAZs": ""
            }
          ]
        },
        "MapPublicIpOnLaunch": true,
        "Tags": [
          {
            "Key": "Name",
            "Value": "MoodyTestStack/moody-vpc/PublicSubnet1"
          },
          {
            "Key": "aws-cdk:subnet-name",
            "Value": "Public"
          },
          {
            "Key": "aws-cdk:subnet-type",
            "Value": "Public"
          }
        ]
      },
      "Metadata": {
        "aws:cdk:path": "MoodyTestStack/moody-vpc/PublicSubnet1/Subnet"
      }
    },
    "moodyvpcPublicSubnet1RouteTableC7ADB8F0": {
      "Type": "AWS::EC2::RouteTable",
      "Properties": {
        "VpcId": {
          "Ref": "moodyvpcBE0FEEF5"
        },
        "Tags": [
          {
            "Key": "Name",
            "Value": "MoodyTestStack/moody-vpc/PublicSubnet1"
          }
        ]
      },
      "Metadata": {
        "aws:cdk:path": "MoodyTestStack/moody-vpc/PublicSubnet1/RouteTable"
      }
    },
    "moodyvpcPublicSubnet1RouteTableAssociationF857B868": {
      "Type": "AWS::EC2::SubnetRouteTableAssociation",
      "Properties": {
        "RouteTableId": {
          "Ref": "moodyvpcPublicSubnet1RouteTableC7ADB8F0"
        },
        "SubnetId": {
          "Ref": "moodyvpcPublicSubnet1SubnetFF3FCB1A"
        }
      },
      "Metadata": {
        "aws:cdk:path": "MoodyTestStack/moody-vpc/PublicSubnet1/RouteTableAssociation"
      }
    },
    "moodyvpcPublicSubnet1DefaultRoute03EB44F3": {
      "Type": "AWS::EC2::Route",
      "Properties": {
        "RouteTableId": {
          "Ref": "moodyvpcPublicSubnet1RouteTableC7ADB8F0"
        },
        "DestinationCidrBlock": "0.0.0.0/0",
        "GatewayId": {
          "Ref": "moodyvpcIGWECBBC046"
        }
      },
      "DependsOn": [
        "moodyvpcVPCGW24634428"
      ],
      "Metadata": {
        "aws:cdk:path": "MoodyTestStack/moody-vpc/PublicSubnet1/DefaultRoute"
      }
    },
    "moodyvpcPublicSubnet1EIP4B7E9388": {
      "Type": "AWS::EC2::EIP",
      "Properties": {
        "Domain": "vpc",
        "Tags": [
          {
            "Key": "Name",
            "Value": "MoodyTestStack/moody-vpc/PublicSubnet1"
          }
        ]
      },
      "Metadata": {
        "aws:cdk:path": "MoodyTestStack/moody-vpc/PublicSubnet1/EIP"
      }
    },
    "moodyvpcPublicSubnet1NATGateway6A4C9C41": {
      "Type": "AWS::EC2::NatGateway",
      "Properties": {
        "AllocationId": {
          "Fn::GetAtt": [
            "moodyvpcPublicSubnet1EIP4B7E9388",
            "AllocationId"
          ]
        },
        "SubnetId": {
          "Ref": "moodyvpcPublicSubnet1SubnetFF3FCB1A"
        },
        "Tags": [
          {
            "Key": "Name",
            "Value": "MoodyTestStack/moody-vpc/PublicSubnet1"
          }
        ]
      },
      "Metadata": {
        "aws:cdk:path": "MoodyTestStack/moody-vpc/PublicSubnet1/NATGateway"
      }
    },
    "moodyvpcPublicSubnet2SubnetC29E22E9": {
      "Type": "AWS::EC2::Subnet",
      "Properties": {
        "CidrBlock": "10.0.64.0/18",
        "VpcId": {
          "Ref": "moodyvpcBE0FEEF5"
        },
        "AvailabilityZone": {
          "Fn::Select": [
            1,
            {
              "Fn::GetAZs": ""
            }
          ]
        },
        "MapPublicIpOnLaunch": true,
        "Tags": [
          {
            "Key": "Name",
            "Value": "MoodyTestStack/moody-vpc/PublicSubnet2"
          },
          {
            "Key": "aws-cdk:subnet-name",
            "Value": "Public"
          },
          {
            "Key": "aws-cdk:subnet-type",
            "Value": "Public"
          }
        ]
      },
      "Metadata": {
        "aws:cdk:path": "MoodyTestStack/moody-vpc/PublicSubnet2/Subnet"
      }
    },
    "moodyvpcPublicSubnet2RouteTable4DCAD89B": {
      "Type": "AWS::EC2::RouteTable",
      "Properties": {
        "VpcId": {
          "Ref": "moodyvpcBE0FEEF5"
        },
        "Tags": [
          {
            "Key": "Name",
            "Value": "MoodyTestStack/moody-vpc/PublicSubnet2"
          }
        ]
      },
      "Metadata": {
        "aws:cdk:path": "MoodyTestStack/moody-vpc/PublicSubnet2/RouteTable"
      }
    },
    "moodyvpcPublicSubnet2RouteTableAssociation6CE6B31C": {
      "Type": "AWS::EC2::SubnetRouteTableAssociation",
      "Properties": {
        "RouteTableId": {
          "Ref": "moodyvpcPublicSubnet2RouteTable4DCAD89B"
        },
        "SubnetId": {
          "Ref": "moodyvpcPublicSubnet2SubnetC29E22E9"
        }
      },
      "Metadata": {
        "aws:cdk:path": "MoodyTestStack/moody-vpc/PublicSubnet2/RouteTableAssociation"
      }
    },
    "moodyvpcPublicSubnet2DefaultRoute7507AB29": {
      "Type": "AWS::EC2::Route",
      "Properties": {
        "RouteTableId": {
          "Ref": "moodyvpcPublicSubnet2RouteTable4DCAD89B"
        },
        "DestinationCidrBlock": "0.0.0.0/0",
        "GatewayId": {
          "Ref": "moodyvpcIGWECBBC046"
        }
      },
      "DependsOn": [
        "moodyvpcVPCGW24634428"
      ],
      "Metadata": {
        "aws:cdk:path": "MoodyTestStack/moody-vpc/PublicSubnet2/DefaultRoute"
      }
    },
    "moodyvpcPublicSubnet2EIPEF2884FA": {
      "Type": "AWS::EC2::EIP",
      "Properties": {
        "Domain": "vpc",
        "Tags": [
          {
            "Key": "Name",
            "Value": "MoodyTestStack/moody-vpc/PublicSubnet2"
          }
        ]
      },
      "Metadata": {
        "aws:cdk:path": "MoodyTestStack/moody-vpc/PublicSubnet2/EIP"
      }
    },
    "moodyvpcPublicSubnet2NATGateway8D5A7EE6": {
      "Type": "AWS::EC2::NatGateway",
      "Properties": {
        "AllocationId": {
          "Fn::GetAtt": [
            "moodyvpcPublicSubnet2EIPEF2884FA",
            "AllocationId"
          ]
        },
        "SubnetId": {
          "Ref": "moodyvpcPublicSubnet2SubnetC29E22E9"
        },
        "Tags": [
          {
            "Key": "Name",
            "Value": "MoodyTestStack/moody-vpc/PublicSubnet2"
          }
        ]
      },
      "Metadata": {
        "aws:cdk:path": "MoodyTestStack/moody-vpc/PublicSubnet2/NATGateway"
      }
    },
    "moodyvpcPrivateSubnet1Subnet735B0CF5": {
      "Type": "AWS::EC2::Subnet",
      "Properties": {
        "CidrBlock": "10.0.128.0/18",
        "VpcId": {
          "Ref": "moodyvpcBE0FEEF5"
        },
        "AvailabilityZone": {
          "Fn::Select": [
            0,
            {
              "Fn::GetAZs": ""
            }
          ]
        },
        "MapPublicIpOnLaunch": false,
        "Tags": [
          {
            "Key": "Name",
            "Value": "MoodyTestStack/moody-vpc/PrivateSubnet1"
          },
          {
            "Key": "aws-cdk:subnet-name",
            "Value": "Private"
          },
          {
            "Key": "aws-cdk:subnet-type",
            "Value": "Private"
          }
        ]
      },
      "Metadata": {
        "aws:cdk:path": "MoodyTestStack/moody-vpc/PrivateSubnet1/Subnet"
      }
    },
    "moodyvpcPrivateSubnet1RouteTable88DC3FA9": {
      "Type": "AWS::EC2::RouteTable",
      "Properties": {
        "VpcId": {
          "Ref": "moodyvpcBE0FEEF5"
        },
        "Tags": [
          {
            "Key": "Name",
            "Value": "MoodyTestStack/moody-vpc/PrivateSubnet1"
          }
        ]
      },
      "Metadata": {
        "aws:cdk:path": "MoodyTestStack/moody-vpc/PrivateSubnet1/RouteTable"
      }
    },
    "moodyvpcPrivateSubnet1RouteTableAssociation0D2253A8": {
      "Type": "AWS::EC2::SubnetRouteTableAssociation",
      "Properties": {
        "RouteTableId": {
          "Ref": "moodyvpcPrivateSubnet1RouteTable88DC3FA9"
        },
        "SubnetId": {
          "Ref": "moodyvpcPrivateSubnet1Subnet735B0CF5"
        }
      },
      "Metadata": {
        "aws:cdk:path": "MoodyTestStack/moody-vpc/PrivateSubnet1/RouteTableAssociation"
      }
    },
    "moodyvpcPrivateSubnet1DefaultRoute75A5EA00": {
      "Type": "AWS::EC2::Route",
      "Properties": {
        "RouteTableId": {
          "Ref": "moodyvpcPrivateSubnet1RouteTable88DC3FA9"
        },
        "DestinationCidrBlock": "0.0.0.0/0",
        "NatGatewayId": {
          "Ref": "moodyvpcPublicSubnet1NATGateway6A4C9C41"
        }
      },
      "Metadata": {
        "aws:cdk:path": "MoodyTestStack/moody-vpc/PrivateSubnet1/DefaultRoute"
      }
    },
    "moodyvpcPrivateSubnet2SubnetBAC2BA65": {
      "Type": "AWS::EC2::Subnet",
      "Properties": {
        "CidrBlock": "10.0.192.0/18",
        "VpcId": {
          "Ref": "moodyvpcBE0FEEF5"
        },
        "AvailabilityZone": {
          "Fn::Select": [
            1,
            {
              "Fn::GetAZs": ""
            }
          ]
        },
        "MapPublicIpOnLaunch": false,
        "Tags": [
          {
            "Key": "Name",
            "Value": "MoodyTestStack/moody-vpc/PrivateSubnet2"
          },
          {
            "Key": "aws-cdk:subnet-name",
            "Value": "Private"
          },
          {
            "Key": "aws-cdk:subnet-type",
            "Value": "Private"
          }
        ]
      },
      "Metadata": {
        "aws:cdk:path": "MoodyTestStack/moody-vpc/PrivateSubnet2/Subnet"
      }
    },
    "moodyvpcPrivateSubnet2RouteTable409961CE": {
      "Type": "AWS::EC2::RouteTable",
      "Properties": {
        "VpcId": {
          "Ref": "moodyvpcBE0FEEF5"
        },
        "Tags": [
          {
            "Key": "Name",
            "Value": "MoodyTestStack/moody-vpc/PrivateSubnet2"
          }
        ]
      },
      "Metadata": {
        "aws:cdk:path": "MoodyTestStack/moody-vpc/PrivateSubnet2/RouteTable"
      }
    },
    "moodyvpcPrivateSubnet2RouteTableAssociationB7A95913": {
      "Type": "AWS::EC2::SubnetRouteTableAssociation",
      "Properties": {
        "RouteTableId": {
          "Ref": "moodyvpcPrivateSubnet2RouteTable409961CE"
        },
        "SubnetId": {
          "Ref": "moodyvpcPrivateSubnet2SubnetBAC2BA65"
        }
      },
      "Metadata": {
        "aws:cdk:path": "MoodyTestStack/moody-vpc/PrivateSubnet2/RouteTableAssociation"
      }
    },
    "moodyvpcPrivateSubnet2DefaultRoute68829758": {
      "Type": "AWS::EC2::Route",
      "Properties": {
        "RouteTableId": {
          "Ref": "moodyvpcPrivateSubnet2RouteTable409961CE"
        },
        "DestinationCidrBlock": "0.0.0.0/0",
        "NatGatewayId": {
          "Ref": "moodyvpcPublicSubnet2NATGateway8D5A7EE6"
        }
      },
      "Metadata": {
        "aws:cdk:path": "MoodyTestStack/moody-vpc/PrivateSubnet2/DefaultRoute"
      }
    },
    "moodyvpcIGWECBBC046": {
      "Type": "AWS::EC2::InternetGateway",
      "Properties": {
        "Tags": [
          {
            "Key": "Name",
            "Value": "MoodyTestStack/moody-vpc"
          }
        ]
      },
      "Metadata": {
        "aws:cdk:path": "MoodyTestStack/moody-vpc/IGW"
      }
    },
    "moodyvpcVPCGW24634428": {
      "Type": "AWS::EC2::VPCGatewayAttachment",
      "Properties": {
        "VpcId": {
          "Ref": "moodyvpcBE0FEEF5"
        },
        "InternetGatewayId": {
          "Ref": "moodyvpcIGWECBBC046"
        }
      },
      "Metadata": {
        "aws:cdk:path": "MoodyTestStack/moody-vpc/VPCGW"
      }
    },
    "moodylocal64637DBD": {
      "Type": "AWS::ServiceDiscovery::PrivateDnsNamespace",
      "Properties": {
        "Name": "moody.local",
        "Vpc": {
          "Ref": "moodyvpcBE0FEEF5"
        }
      },
      "Metadata": {
        "aws:cdk:path": "MoodyTestStack/moody.local/Resource"
      }
    },
    "cluster611F8AFF": {
      "Type": "AWS::ECS::Cluster",
      "Properties": {
        "ClusterName": "moody-cluster"
      },
      "Metadata": {
        "aws:cdk:path": "MoodyTestStack/cluster/Resource"
      }
    },
    "moodymesh24F55792": {
      "Type": "AWS::AppMesh::Mesh",
      "Properties": {
        "MeshName": "moody-mesh",
        "Spec": {
          "EgressFilter": {
            "Type": "ALLOW_ALL"
          }
        }
      },
      "Metadata": {
        "aws:cdk:path": "MoodyTestStack/moody-mesh/Resource"
      }
    },
    "wegoodLBAE2A1CFA": {
      "Type": "AWS::ElasticLoadBalancingV2::LoadBalancer",
      "Properties": {
        "Scheme": "internet-facing",
        "SecurityGroups": [
          {
            "Fn::GetAtt": [
              "wegoodLBSecurityGroupCDA0EBA2",
              "GroupId"
            ]
          }
        ],
        "Subnets": [
          {
            "Ref": "moodyvpcPublicSubnet1SubnetFF3FCB1A"
          },
          {
            "Ref": "moodyvpcPublicSubnet2SubnetC29E22E9"
          }
        ],
        "Type": "application"
      },
      "DependsOn": [
        "moodyvpcPublicSubnet1DefaultRoute03EB44F3",
        "moodyvpcPublicSubnet2DefaultRoute7507AB29"
      ],
      "Metadata": {
        "aws:cdk:path": "MoodyTestStack/wegood/LB/Resource"
      }
    },
    "wegoodLBSecurityGroupCDA0EBA2": {
      "Type": "AWS::EC2::SecurityGroup",
      "Properties": {
        "GroupDescription": "Automatically created Security Group for ELB MoodyTestStackwegoodLB92A26F37",
        "SecurityGroupIngress": [
          {
            "CidrIp": "0.0.0.0/0",
            "Description": "Allow from anyone on port 80",
            "FromPort": 80,
            "IpProtocol": "tcp",
            "ToPort": 80
          }
        ],
        "VpcId": {
          "Ref": "moodyvpcBE0FEEF5"
        }
      },
      "Metadata": {
        "aws:cdk:path": "MoodyTestStack/wegood/LB/SecurityGroup/Resource"
      }
    },
    "wegoodLBSecurityGrouptoMoodyTestStackwegoodServiceSecurityGroup6618340E456795229279": {
      "Type": "AWS::EC2::SecurityGroupEgress",
      "Properties": {
        "GroupId": {
          "Fn::GetAtt": [
            "wegoodLBSecurityGroupCDA0EBA2",
            "GroupId"
          ]
        },
        "IpProtocol": "tcp",
        "Description": "Load balancer to target",
        "DestinationSecurityGroupId": {
          "Fn::GetAtt": [
            "wegoodServiceSecurityGroupE2774769",
            "GroupId"
          ]
        },
        "FromPort": 4567,
        "ToPort": 4567
      },
      "Metadata": {
        "aws:cdk:path": "MoodyTestStack/wegood/LB/SecurityGroup/to MoodyTestStackwegoodServiceSecurityGroup6618340E:4567"
      }
    },
    "wegoodLBPublicListener4F1B645C": {
      "Type": "AWS::ElasticLoadBalancingV2::Listener",
      "Properties": {
        "DefaultActions": [
          {
            "TargetGroupArn": {
              "Ref": "wegoodLBPublicListenerECSGroupC894BD2F"
            },
            "Type": "forward"
          }
        ],
        "LoadBalancerArn": {
          "Ref": "wegoodLBAE2A1CFA"
        },
        "Port": 80,
        "Protocol": "HTTP"
      },
      "Metadata": {
        "aws:cdk:path": "MoodyTestStack/wegood/LB/PublicListener/Resource"
      }
    },
    "wegoodLBPublicListenerECSGroupC894BD2F": {
      "Type": "AWS::ElasticLoadBalancingV2::TargetGroup",
      "Properties": {
        "Port": 80,
        "Protocol": "HTTP",
        "TargetType": "ip",
        "VpcId": {
          "Ref": "moodyvpcBE0FEEF5"
        }
      },
      "Metadata": {
        "aws:cdk:path": "MoodyTestStack/wegood/LB/PublicListener/ECSGroup/Resource"
      }
    },
    "wegoodTaskDefTaskRole4A982C1B": {
      "Type": "AWS::IAM::Role",
      "Properties": {
        "AssumeRolePolicyDocument": {
          "Statement": [
            {
              "Action": "sts:AssumeRole",
              "Effect": "Allow",
              "Principal": {
                "Service": "ecs-tasks.amazonaws.com"
              }
            }
          ],
          "Version": "2012-10-17"
        }
      },
      "Metadata": {
        "aws:cdk:path": "MoodyTestStack/wegood/TaskDef/TaskRole/Resource"
      }
    },
    "wegoodTaskDef4D04E6DB": {
      "Type": "AWS::ECS::TaskDefinition",
      "Properties": {
        "ContainerDefinitions": [
          {
            "Essential": true,
            "Image": "cliffberg/wegood",
            "LogConfiguration": {
              "LogDriver": "awslogs",
              "Options": {
                "awslogs-group": {
                  "Ref": "wegoodTaskDefwegoodLogGroupB7FEB3DE"
                },
                "awslogs-stream-prefix": "wegood",
                "awslogs-region": {
                  "Ref": "AWS::Region"
                }
              }
            },
            "Name": "wegood",
            "PortMappings": [
              {
                "ContainerPort": 4567,
                "Protocol": "tcp"
              }
            ]
          }
        ],
        "Cpu": "512",
        "ExecutionRoleArn": {
          "Fn::GetAtt": [
            "wegoodTaskDefExecutionRole1400D221",
            "Arn"
          ]
        },
        "Family": "MoodyTestStackwegoodTaskDef14D86375",
        "Memory": "1024",
        "NetworkMode": "awsvpc",
        "RequiresCompatibilities": [
          "FARGATE"
        ],
        "TaskRoleArn": {
          "Fn::GetAtt": [
            "wegoodTaskDefTaskRole4A982C1B",
            "Arn"
          ]
        }
      },
      "Metadata": {
        "aws:cdk:path": "MoodyTestStack/wegood/TaskDef/Resource"
      }
    },
    "wegoodTaskDefwegoodLogGroupB7FEB3DE": {
      "Type": "AWS::Logs::LogGroup",
      "UpdateReplacePolicy": "Retain",
      "DeletionPolicy": "Retain",
      "Metadata": {
        "aws:cdk:path": "MoodyTestStack/wegood/TaskDef/wegood/LogGroup/Resource"
      }
    },
    "wegoodTaskDefExecutionRole1400D221": {
      "Type": "AWS::IAM::Role",
      "Properties": {
        "AssumeRolePolicyDocument": {
          "Statement": [
            {
              "Action": "sts:AssumeRole",
              "Effect": "Allow",
              "Principal": {
                "Service": "ecs-tasks.amazonaws.com"
              }
            }
          ],
          "Version": "2012-10-17"
        }
      },
      "Metadata": {
        "aws:cdk:path": "MoodyTestStack/wegood/TaskDef/ExecutionRole/Resource"
      }
    },
    "wegoodTaskDefExecutionRoleDefaultPolicy3B67AD2B": {
      "Type": "AWS::IAM::Policy",
      "Properties": {
        "PolicyDocument": {
          "Statement": [
            {
              "Action": [
                "logs:CreateLogStream",
                "logs:PutLogEvents"
              ],
              "Effect": "Allow",
              "Resource": {
                "Fn::GetAtt": [
                  "wegoodTaskDefwegoodLogGroupB7FEB3DE",
                  "Arn"
                ]
              }
            }
          ],
          "Version": "2012-10-17"
        },
        "PolicyName": "wegoodTaskDefExecutionRoleDefaultPolicy3B67AD2B",
        "Roles": [
          {
            "Ref": "wegoodTaskDefExecutionRole1400D221"
          }
        ]
      },
      "Metadata": {
        "aws:cdk:path": "MoodyTestStack/wegood/TaskDef/ExecutionRole/DefaultPolicy/Resource"
      }
    },
    "wegoodService3B2C3C93": {
      "Type": "AWS::ECS::Service",
      "Properties": {
        "Cluster": {
          "Ref": "cluster611F8AFF"
        },
        "DeploymentConfiguration": {
          "MaximumPercent": 200,
          "MinimumHealthyPercent": 50
        },
        "DesiredCount": 2,
        "EnableECSManagedTags": false,
        "HealthCheckGracePeriodSeconds": 60,
        "LaunchType": "FARGATE",
        "LoadBalancers": [
          {
            "ContainerName": "wegood",
            "ContainerPort": 4567,
            "TargetGroupArn": {
              "Ref": "wegoodLBPublicListenerECSGroupC894BD2F"
            }
          }
        ],
        "NetworkConfiguration": {
          "AwsvpcConfiguration": {
            "AssignPublicIp": "DISABLED",
            "SecurityGroups": [
              {
                "Fn::GetAtt": [
                  "wegoodServiceSecurityGroupE2774769",
                  "GroupId"
                ]
              }
            ],
            "Subnets": [
              {
                "Ref": "moodyvpcPrivateSubnet1Subnet735B0CF5"
              },
              {
                "Ref": "moodyvpcPrivateSubnet2SubnetBAC2BA65"
              }
            ]
          }
        },
        "ServiceName": "wegood",
        "ServiceRegistries": [
          {
            "RegistryArn": {
              "Fn::GetAtt": [
                "wegoodServiceCloudmapServiceC8DAFC45",
                "Arn"
              ]
            }
          }
        ],
        "TaskDefinition": {
          "Ref": "wegoodTaskDef4D04E6DB"
        }
      },
      "DependsOn": [
        "wegoodLBPublicListenerECSGroupC894BD2F",
        "wegoodLBPublicListener4F1B645C"
      ],
      "Metadata": {
        "aws:cdk:path": "MoodyTestStack/wegood/Service/Service"
      }
    },
    "wegoodServiceCloudmapServiceC8DAFC45": {
      "Type": "AWS::ServiceDiscovery::Service",
      "Properties": {
        "DnsConfig": {
          "DnsRecords": [
            {
              "TTL": 60,
              "Type": "A"
            }
          ],
          "NamespaceId": {
            "Fn::GetAtt": [
              "moodylocal64637DBD",
              "Id"
            ]
          },
          "RoutingPolicy": "MULTIVALUE"
        },
        "HealthCheckCustomConfig": {
          "FailureThreshold": 1
        },
        "Name": "wegood",
        "NamespaceId": {
          "Fn::GetAtt": [
            "moodylocal64637DBD",
            "Id"
          ]
        }
      },
      "Metadata": {
        "aws:cdk:path": "MoodyTestStack/wegood/Service/CloudmapService/Resource"
      }
    },
    "wegoodServiceSecurityGroupE2774769": {
      "Type": "AWS::EC2::SecurityGroup",
      "Properties": {
        "GroupDescription": "MoodyTestStack/wegood/Service/SecurityGroup",
        "SecurityGroupEgress": [
          {
            "CidrIp": "0.0.0.0/0",
            "Description": "Allow all outbound traffic by default",
            "IpProtocol": "-1"
          }
        ],
        "VpcId": {
          "Ref": "moodyvpcBE0FEEF5"
        }
      },
      "Metadata": {
        "aws:cdk:path": "MoodyTestStack/wegood/Service/SecurityGroup/Resource"
      }
    },
    "wegoodServiceSecurityGroupfromMoodyTestStackwegoodLBSecurityGroup15F3BBC14567BB948676": {
      "Type": "AWS::EC2::SecurityGroupIngress",
      "Properties": {
        "IpProtocol": "tcp",
        "Description": "Load balancer to target",
        "FromPort": 4567,
        "GroupId": {
          "Fn::GetAtt": [
            "wegoodServiceSecurityGroupE2774769",
            "GroupId"
          ]
        },
        "SourceSecurityGroupId": {
          "Fn::GetAtt": [
            "wegoodLBSecurityGroupCDA0EBA2",
            "GroupId"
          ]
        },
        "ToPort": 4567
      },
      "Metadata": {
        "aws:cdk:path": "MoodyTestStack/wegood/Service/SecurityGroup/from MoodyTestStackwegoodLBSecurityGroup15F3BBC1:4567"
      }
    },
    "wegoodServiceSecurityGroupfromMoodyTestStackhelloSG9C8614104567F0E12D62": {
      "Type": "AWS::EC2::SecurityGroupIngress",
      "Properties": {
        "IpProtocol": "tcp",
        "Description": "Hello to WeGood service discovery SG",
        "FromPort": 4567,
        "GroupId": {
          "Fn::GetAtt": [
            "wegoodServiceSecurityGroupE2774769",
            "GroupId"
          ]
        },
        "SourceSecurityGroupId": {
          "Fn::GetAtt": [
            "helloServiceSecurityGroupD45B06E3",
            "GroupId"
          ]
        },
        "ToPort": 4567
      },
      "Metadata": {
        "aws:cdk:path": "MoodyTestStack/wegood/Service/SecurityGroup/from MoodyTestStackhelloSG9C861410:4567"
      }
    },
    "wegoodServiceTaskCountTargetFA374929": {
      "Type": "AWS::ApplicationAutoScaling::ScalableTarget",
      "Properties": {
        "MaxCapacity": 3,
        "MinCapacity": 1,
        "ResourceId": {
          "Fn::Join": [
            "",
            [
              "service/",
              {
                "Ref": "cluster611F8AFF"
              },
              "/",
              {
                "Fn::GetAtt": [
                  "wegoodService3B2C3C93",
                  "Name"
                ]
              }
            ]
          ]
        },
        "RoleARN": {
          "Fn::Join": [
            "",
            [
              "arn:",
              {
                "Ref": "AWS::Partition"
              },
              ":iam::",
              {
                "Ref": "AWS::AccountId"
              },
              ":role/aws-service-role/ecs.application-autoscaling.amazonaws.com/AWSServiceRoleForApplicationAutoScaling_ECSService"
            ]
          ]
        },
        "ScalableDimension": "ecs:service:DesiredCount",
        "ServiceNamespace": "ecs"
      },
      "Metadata": {
        "aws:cdk:path": "MoodyTestStack/wegood/Service/TaskCount/Target/Resource"
      }
    },
    "wegoodServiceTaskCountTargetscalingwegoodCC4B394D": {
      "Type": "AWS::ApplicationAutoScaling::ScalingPolicy",
      "Properties": {
        "PolicyName": "requestCount_wegood",
        "PolicyType": "TargetTrackingScaling",
        "ScalingTargetId": {
          "Ref": "wegoodServiceTaskCountTargetFA374929"
        },
        "TargetTrackingScalingPolicyConfiguration": {
          "PredefinedMetricSpecification": {
            "PredefinedMetricType": "ALBRequestCountPerTarget",
            "ResourceLabel": {
              "Fn::Join": [
                "",
                [
                  {
                    "Fn::Select": [
                      1,
                      {
                        "Fn::Split": [
                          "/",
                          {
                            "Ref": "wegoodLBPublicListener4F1B645C"
                          }
                        ]
                      }
                    ]
                  },
                  "/",
                  {
                    "Fn::Select": [
                      2,
                      {
                        "Fn::Split": [
                          "/",
                          {
                            "Ref": "wegoodLBPublicListener4F1B645C"
                          }
                        ]
                      }
                    ]
                  },
                  "/",
                  {
                    "Fn::Select": [
                      3,
                      {
                        "Fn::Split": [
                          "/",
                          {
                            "Ref": "wegoodLBPublicListener4F1B645C"
                          }
                        ]
                      }
                    ]
                  },
                  "/",
                  {
                    "Fn::GetAtt": [
                      "wegoodLBPublicListenerECSGroupC894BD2F",
                      "TargetGroupFullName"
                    ]
                  }
                ]
              ]
            }
          },
          "ScaleInCooldown": 300,
          "ScaleOutCooldown": 300,
          "TargetValue": 10
        }
      },
      "Metadata": {
        "aws:cdk:path": "MoodyTestStack/wegood/Service/TaskCount/Target/scaling_wegood/Resource"
      }
    },
    "wegoodvn59E2D542": {
      "Type": "AWS::AppMesh::VirtualNode",
      "Properties": {
        "MeshName": {
          "Fn::GetAtt": [
            "moodymesh24F55792",
            "MeshName"
          ]
        },
        "Spec": {
          "Listeners": [
            {
              "PortMapping": {
                "Port": 4567,
                "Protocol": "http"
              }
            }
          ],
          "Logging": {
            "AccessLog": {
              "File": {
                "Path": "/dev/stdout"
              }
            }
          },
          "ServiceDiscovery": {
            "DNS": {
              "Hostname": "wegood.moody.local"
            }
          }
        },
        "VirtualNodeName": "wegood-vn"
      },
      "Metadata": {
        "aws:cdk:path": "MoodyTestStack/wegood-vn/Resource"
      }
    },
    "wegoodvs5EF76F8A": {
      "Type": "AWS::AppMesh::VirtualService",
      "Properties": {
        "MeshName": {
          "Fn::GetAtt": [
            "moodymesh24F55792",
            "MeshName"
          ]
        },
        "Spec": {
          "Provider": {
            "VirtualNode": {
              "VirtualNodeName": {
                "Fn::GetAtt": [
                  "wegoodvn59E2D542",
                  "VirtualNodeName"
                ]
              }
            }
          }
        },
        "VirtualServiceName": "wegood.moody.local"
      },
      "Metadata": {
        "aws:cdk:path": "MoodyTestStack/wegood-vs/Resource"
      }
    },
    "proxyhelloTaskRole209F5475": {
      "Type": "AWS::IAM::Role",
      "Properties": {
        "AssumeRolePolicyDocument": {
          "Statement": [
            {
              "Action": "sts:AssumeRole",
              "Effect": "Allow",
              "Principal": {
                "Service": "ecs-tasks.amazonaws.com"
              }
            }
          ],
          "Version": "2012-10-17"
        }
      },
      "Metadata": {
        "aws:cdk:path": "MoodyTestStack/proxy_hello/TaskRole/Resource"
      }
    },
    "proxyhello3F7F0BDB": {
      "Type": "AWS::ECS::TaskDefinition",
      "Properties": {
        "ContainerDefinitions": [
          {
            "Environment": [
              {
                "Name": "WEGOOD_FACTORY_CLASS_NAME",
                "Value": "wegood.stub.WeGoodProxyFactory"
              },
              {
                "Name": "WEGOOD_SERVICE_URL",
                "Value": "http://wegood.moody.local:4567"
              }
            ],
            "Essential": true,
            "Image": "cliffberg/hello",
            "Name": "hello",
            "PortMappings": [
              {
                "ContainerPort": 4567,
                "HostPort": 4567,
                "Protocol": "tcp"
              }
            ]
          },
          {
            "Environment": [
              {
                "Name": "APPMESH_VIRTUAL_NODE_NAME",
                "Value": "mesh/moody-mesh/virtualNode/hello-vn"
              }
            ],
            "Essential": true,
            "Image": {
              "Fn::Join": [
                "",
                [
                  "840364872350.dkr.ecr.us-west-2.",
                  {
                    "Ref": "AWS::URLSuffix"
                  },
                  "/aws-appmesh-envoy:v1.12.1.0-prod"
                ]
              ]
            },
            "Name": "envoy",
            "User": "1337"
          }
        ],
        "Cpu": "256",
        "ExecutionRoleArn": {
          "Fn::GetAtt": [
            "proxyhelloExecutionRoleB4AA79AF",
            "Arn"
          ]
        },
        "Family": "MoodyTestStackproxyhello5C8FE645",
        "Memory": "512",
        "NetworkMode": "awsvpc",
        "ProxyConfiguration": {
          "ContainerName": "envoy",
          "ProxyConfigurationProperties": [
            {
              "Name": "AppPorts",
              "Value": "4567"
            },
            {
              "Name": "ProxyEgressPort",
              "Value": "15001"
            },
            {
              "Name": "ProxyIngressPort",
              "Value": "15000"
            },
            {
              "Name": "IgnoredUID",
              "Value": "1337"
            }
          ],
          "Type": "APPMESH"
        },
        "RequiresCompatibilities": [
          "FARGATE"
        ],
        "TaskRoleArn": {
          "Fn::GetAtt": [
            "proxyhelloTaskRole209F5475",
            "Arn"
          ]
        }
      },
      "Metadata": {
        "aws:cdk:path": "MoodyTestStack/proxy_hello/Resource"
      }
    },
    "proxyhelloExecutionRoleB4AA79AF": {
      "Type": "AWS::IAM::Role",
      "Properties": {
        "AssumeRolePolicyDocument": {
          "Statement": [
            {
              "Action": "sts:AssumeRole",
              "Effect": "Allow",
              "Principal": {
                "Service": "ecs-tasks.amazonaws.com"
              }
            }
          ],
          "Version": "2012-10-17"
        }
      },
      "Metadata": {
        "aws:cdk:path": "MoodyTestStack/proxy_hello/ExecutionRole/Resource"
      }
    },
    "proxyhelloExecutionRoleDefaultPolicyEE8A4E37": {
      "Type": "AWS::IAM::Policy",
      "Properties": {
        "PolicyDocument": {
          "Statement": [
            {
              "Action": [
                "ecr:BatchCheckLayerAvailability",
                "ecr:GetDownloadUrlForLayer",
                "ecr:BatchGetImage"
              ],
              "Effect": "Allow",
              "Resource": "arn:aws:ecr:us-west-2:840364872350:repository/aws-appmesh-envoy"
            },
            {
              "Action": "ecr:GetAuthorizationToken",
              "Effect": "Allow",
              "Resource": "*"
            }
          ],
          "Version": "2012-10-17"
        },
        "PolicyName": "proxyhelloExecutionRoleDefaultPolicyEE8A4E37",
        "Roles": [
          {
            "Ref": "proxyhelloExecutionRoleB4AA79AF"
          }
        ]
      },
      "Metadata": {
        "aws:cdk:path": "MoodyTestStack/proxy_hello/ExecutionRole/DefaultPolicy/Resource"
      }
    },
    "helloLB730E9A7A": {
      "Type": "AWS::ElasticLoadBalancingV2::LoadBalancer",
      "Properties": {
        "Scheme": "internet-facing",
        "SecurityGroups": [
          {
            "Fn::GetAtt": [
              "helloLBSecurityGroupE1B11A55",
              "GroupId"
            ]
          }
        ],
        "Subnets": [
          {
            "Ref": "moodyvpcPublicSubnet1SubnetFF3FCB1A"
          },
          {
            "Ref": "moodyvpcPublicSubnet2SubnetC29E22E9"
          }
        ],
        "Type": "application"
      },
      "DependsOn": [
        "moodyvpcPublicSubnet1DefaultRoute03EB44F3",
        "moodyvpcPublicSubnet2DefaultRoute7507AB29"
      ],
      "Metadata": {
        "aws:cdk:path": "MoodyTestStack/hello/LB/Resource"
      }
    },
    "helloLBSecurityGroupE1B11A55": {
      "Type": "AWS::EC2::SecurityGroup",
      "Properties": {
        "GroupDescription": "Automatically created Security Group for ELB MoodyTestStackhelloLBA7D4FFAC",
        "SecurityGroupIngress": [
          {
            "CidrIp": "0.0.0.0/0",
            "Description": "Allow from anyone on port 80",
            "FromPort": 80,
            "IpProtocol": "tcp",
            "ToPort": 80
          }
        ],
        "VpcId": {
          "Ref": "moodyvpcBE0FEEF5"
        }
      },
      "Metadata": {
        "aws:cdk:path": "MoodyTestStack/hello/LB/SecurityGroup/Resource"
      }
    },
    "helloLBSecurityGrouptoMoodyTestStackhelloServiceSecurityGroupC58F5B924567DEF210C3": {
      "Type": "AWS::EC2::SecurityGroupEgress",
      "Properties": {
        "GroupId": {
          "Fn::GetAtt": [
            "helloLBSecurityGroupE1B11A55",
            "GroupId"
          ]
        },
        "IpProtocol": "tcp",
        "Description": "Load balancer to target",
        "DestinationSecurityGroupId": {
          "Fn::GetAtt": [
            "helloServiceSecurityGroupD45B06E3",
            "GroupId"
          ]
        },
        "FromPort": 4567,
        "ToPort": 4567
      },
      "Metadata": {
        "aws:cdk:path": "MoodyTestStack/hello/LB/SecurityGroup/to MoodyTestStackhelloServiceSecurityGroupC58F5B92:4567"
      }
    },
    "helloLBPublicListener3980F79A": {
      "Type": "AWS::ElasticLoadBalancingV2::Listener",
      "Properties": {
        "DefaultActions": [
          {
            "TargetGroupArn": {
              "Ref": "helloLBPublicListenerECSGroupA28F905D"
            },
            "Type": "forward"
          }
        ],
        "LoadBalancerArn": {
          "Ref": "helloLB730E9A7A"
        },
        "Port": 80,
        "Protocol": "HTTP"
      },
      "Metadata": {
        "aws:cdk:path": "MoodyTestStack/hello/LB/PublicListener/Resource"
      }
    },
    "helloLBPublicListenerECSGroupA28F905D": {
      "Type": "AWS::ElasticLoadBalancingV2::TargetGroup",
      "Properties": {
        "Port": 80,
        "Protocol": "HTTP",
        "TargetType": "ip",
        "VpcId": {
          "Ref": "moodyvpcBE0FEEF5"
        }
      },
      "Metadata": {
        "aws:cdk:path": "MoodyTestStack/hello/LB/PublicListener/ECSGroup/Resource"
      }
    },
    "helloServiceFB62EDB3": {
      "Type": "AWS::ECS::Service",
      "Properties": {
        "Cluster": {
          "Ref": "cluster611F8AFF"
        },
        "DeploymentConfiguration": {
          "MaximumPercent": 200,
          "MinimumHealthyPercent": 50
        },
        "DesiredCount": 2,
        "EnableECSManagedTags": false,
        "HealthCheckGracePeriodSeconds": 60,
        "LaunchType": "FARGATE",
        "LoadBalancers": [
          {
            "ContainerName": "hello",
            "ContainerPort": 4567,
            "TargetGroupArn": {
              "Ref": "helloLBPublicListenerECSGroupA28F905D"
            }
          }
        ],
        "NetworkConfiguration": {
          "AwsvpcConfiguration": {
            "AssignPublicIp": "DISABLED",
            "SecurityGroups": [
              {
                "Fn::GetAtt": [
                  "helloServiceSecurityGroupD45B06E3",
                  "GroupId"
                ]
              }
            ],
            "Subnets": [
              {
                "Ref": "moodyvpcPrivateSubnet1Subnet735B0CF5"
              },
              {
                "Ref": "moodyvpcPrivateSubnet2SubnetBAC2BA65"
              }
            ]
          }
        },
        "ServiceName": "hello",
        "ServiceRegistries": [
          {
            "RegistryArn": {
              "Fn::GetAtt": [
                "helloServiceCloudmapServiceF202FD8C",
                "Arn"
              ]
            }
          }
        ],
        "TaskDefinition": {
          "Ref": "proxyhello3F7F0BDB"
        }
      },
      "DependsOn": [
        "helloLBPublicListenerECSGroupA28F905D",
        "helloLBPublicListener3980F79A"
      ],
      "Metadata": {
        "aws:cdk:path": "MoodyTestStack/hello/Service/Service"
      }
    },
    "helloServiceCloudmapServiceF202FD8C": {
      "Type": "AWS::ServiceDiscovery::Service",
      "Properties": {
        "DnsConfig": {
          "DnsRecords": [
            {
              "TTL": 60,
              "Type": "A"
            }
          ],
          "NamespaceId": {
            "Fn::GetAtt": [
              "moodylocal64637DBD",
              "Id"
            ]
          },
          "RoutingPolicy": "MULTIVALUE"
        },
        "HealthCheckCustomConfig": {
          "FailureThreshold": 1
        },
        "Name": "hello",
        "NamespaceId": {
          "Fn::GetAtt": [
            "moodylocal64637DBD",
            "Id"
          ]
        }
      },
      "Metadata": {
        "aws:cdk:path": "MoodyTestStack/hello/Service/CloudmapService/Resource"
      }
    },
    "helloServiceSecurityGroupD45B06E3": {
      "Type": "AWS::EC2::SecurityGroup",
      "Properties": {
        "GroupDescription": "MoodyTestStack/hello/Service/SecurityGroup",
        "SecurityGroupEgress": [
          {
            "CidrIp": "0.0.0.0/0",
            "Description": "Allow all outbound traffic by default",
            "IpProtocol": "-1"
          }
        ],
        "VpcId": {
          "Ref": "moodyvpcBE0FEEF5"
        }
      },
      "Metadata": {
        "aws:cdk:path": "MoodyTestStack/hello/Service/SecurityGroup/Resource"
      }
    },
    "helloServiceSecurityGroupfromMoodyTestStackhelloLBSecurityGroup86C6894A45678E6303D8": {
      "Type": "AWS::EC2::SecurityGroupIngress",
      "Properties": {
        "IpProtocol": "tcp",
        "Description": "Load balancer to target",
        "FromPort": 4567,
        "GroupId": {
          "Fn::GetAtt": [
            "helloServiceSecurityGroupD45B06E3",
            "GroupId"
          ]
        },
        "SourceSecurityGroupId": {
          "Fn::GetAtt": [
            "helloLBSecurityGroupE1B11A55",
            "GroupId"
          ]
        },
        "ToPort": 4567
      },
      "Metadata": {
        "aws:cdk:path": "MoodyTestStack/hello/Service/SecurityGroup/from MoodyTestStackhelloLBSecurityGroup86C6894A:4567"
      }
    },
    "hellovn9FBC421A": {
      "Type": "AWS::AppMesh::VirtualNode",
      "Properties": {
        "MeshName": {
          "Fn::GetAtt": [
            "moodymesh24F55792",
            "MeshName"
          ]
        },
        "Spec": {
          "Backends": [
            {
              "VirtualService": {
                "VirtualServiceName": {
                  "Fn::GetAtt": [
                    "wegoodvs5EF76F8A",
                    "VirtualServiceName"
                  ]
                }
              }
            }
          ],
          "Listeners": [
            {
              "PortMapping": {
                "Port": 4567,
                "Protocol": "http"
              }
            }
          ],
          "Logging": {
            "AccessLog": {
              "File": {
                "Path": "/dev/stdout"
              }
            }
          },
          "ServiceDiscovery": {
            "DNS": {
              "Hostname": "hello.moody.local"
            }
          }
        },
        "VirtualNodeName": "hello-vn"
      },
      "Metadata": {
        "aws:cdk:path": "MoodyTestStack/hello-vn/Resource"
      }
    },
    "hellovs44567807": {
      "Type": "AWS::AppMesh::VirtualService",
      "Properties": {
        "MeshName": {
          "Fn::GetAtt": [
            "moodymesh24F55792",
            "MeshName"
          ]
        },
        "Spec": {
          "Provider": {
            "VirtualNode": {
              "VirtualNodeName": {
                "Fn::GetAtt": [
                  "hellovn9FBC421A",
                  "VirtualNodeName"
                ]
              }
            }
          }
        },
        "VirtualServiceName": "hello.moody.local"
      },
      "Metadata": {
        "aws:cdk:path": "MoodyTestStack/hello-vs/Resource"
      }
    }
  },
  "Outputs": {
    "wegoodLoadBalancerDNSE1BC681A": {
      "Value": {
        "Fn::GetAtt": [
          "wegoodLBAE2A1CFA",
          "DNSName"
        ]
      }
    },
    "wegoodServiceURL404208DB": {
      "Value": {
        "Fn::Join": [
          "",
          [
            "http://",
            {
              "Fn::GetAtt": [
                "wegoodLBAE2A1CFA",
                "DNSName"
              ]
            }
          ]
        ]
      }
    },
    "helloLoadBalancerDNS35A60594": {
      "Value": {
        "Fn::GetAtt": [
          "helloLB730E9A7A",
          "DNSName"
        ]
      }
    },
    "helloServiceURLFB465042": {
      "Value": {
        "Fn::Join": [
          "",
          [
            "http://",
            {
              "Fn::GetAtt": [
                "helloLB730E9A7A",
                "DNSName"
              ]
            }
          ]
        ]
      }
    }
  }
}